{
    "features": [
        {
            "type": "Feature",
            "properties": {
                "@id": "way/72140793_0",
                "highway": "tertiary",
                "name": "Avenue des Alli\u00e9s",
                "roundabout": false
            },
            "geometry": {
                "type": "LineString",
                "coordinates": [
                    [
                        2.0706345,
                        50.8709358
                    ],
                    [
                        2.0707324,
                        50.8710145
                    ],
                    [
                        2.0708138,
                        50.8710816
                    ],
                    [
                        2.0709876,
                        50.8711785
                    ],
                    [
                        2.0711245,
                        50.8712805
                    ],
                    [
                        2.0712443,
                        50.8713698
                    ],
                    [
                        2.071588,
                        50.8716247
                    ],
                    [
                        2.0718326,
                        50.8718268
                    ],
                    [
                        2.0720412,
                        50.8719826
                    ],
                    [
                        2.0721668,
                        50.8720764
                    ],
                    [
                        2.072261,
                        50.8721467
                    ]
                ]
            },
            "merged_links_id": [],
            "merged_links_coords": [],
            "id": "way/72140793_0"
        },
        {
            "type": "Feature",
            "properties": {
                "@id": "way/72140793_1",
                "highway": "tertiary",
                "name": "Avenue des Alli\u00e9s",
                "roundabout": false
            },
            "geometry": {
                "type": "LineString",
                "coordinates": [
                    [
                        2.072261,
                        50.8721467
                    ],
                    [
                        2.073513,
                        50.8733444
                    ],
                    [
                        2.0737419,
                        50.873647
                    ],
                    [
                        2.0742794,
                        50.8743911
                    ],
                    [
                        2.0743388,
                        50.8744793
                    ],
                    [
                        2.0743782,
                        50.8745233
                    ],
                    [
                        2.0744236,
                        50.8745682
                    ],
                    [
                        2.0746058,
                        50.8747331
                    ],
                    [
                        2.0750613,
                        50.8751416
                    ],
                    [
                        2.075196,
                        50.8752752
                    ]
                ]
            },
            "merged_links_id": [],
            "merged_links_coords": [],
            "id": "way/72140793_1"
        },
        {
            "type": "Feature",
            "properties": {
                "@id": "way/72140795_0",
                "highway": "residential",
                "name": "Rue Saint-Blaise",
                "roundabout": false
            },
            "geometry": {
                "type": "LineString",
                "coordinates": [
                    [
                        2.0704014,
                        50.876276
                    ],
                    [
                        2.0704542,
                        50.8762682
                    ],
                    [
                        2.0718894,
                        50.8760587
                    ]
                ]
            },
            "merged_links_id": [],
            "merged_links_coords": [],
            "id": "way/72140795_0"
        },
        {
            "type": "Feature",
            "properties": {
                "@id": "way/72140795_1",
                "highway": "residential",
                "name": "Rue Saint-Blaise",
                "roundabout": false
            },
            "geometry": {
                "type": "LineString",
                "coordinates": [
                    [
                        2.0718894,
                        50.8760587
                    ],
                    [
                        2.0731559,
                        50.8758737
                    ],
                    [
                        2.0732028,
                        50.8758651
                    ],
                    [
                        2.0732589,
                        50.8758489
                    ],
                    [
                        2.0733286,
                        50.8758307
                    ],
                    [
                        2.0744024,
                        50.875674
                    ],
                    [
                        2.0744751,
                        50.8756682
                    ],
                    [
                        2.0745508,
                        50.8756682
                    ],
                    [
                        2.0746153,
                        50.8756607
                    ],
                    [
                        2.0752823,
                        50.875561
                    ],
                    [
                        2.0754444,
                        50.8755298
                    ]
                ]
            },
            "merged_links_id": [],
            "merged_links_coords": [],
            "id": "way/72140795_1"
        },
        {
            "type": "Feature",
            "properties": {
                "@id": "way/72140797",
                "highway": "residential",
                "name": "Rue des Sports",
                "roundabout": false
            },
            "geometry": {
                "type": "LineString",
                "coordinates": [
                    [
                        2.0741226,
                        50.8759389
                    ],
                    [
                        2.0709738,
                        50.8763879
                    ],
                    [
                        2.070849,
                        50.8764147
                    ],
                    [
                        2.0707901,
                        50.8764485
                    ],
                    [
                        2.0707655,
                        50.8764728
                    ],
                    [
                        2.070732,
                        50.876507
                    ]
                ]
            },
            "merged_links_id": [],
            "merged_links_coords": [],
            "id": "way/72140797"
        },
        {
            "type": "Feature",
            "properties": {
                "@id": "way/89475884",
                "highway": "residential",
                "name": "Rue d'Artois",
                "roundabout": false
            },
            "geometry": {
                "type": "LineString",
                "coordinates": [
                    [
                        2.0741226,
                        50.8759389
                    ],
                    [
                        2.0741278,
                        50.8759764
                    ],
                    [
                        2.0741207,
                        50.8760065
                    ],
                    [
                        2.0740811,
                        50.8760484
                    ],
                    [
                        2.0740491,
                        50.8760731
                    ],
                    [
                        2.0740327,
                        50.8760831
                    ],
                    [
                        2.0738386,
                        50.8762017
                    ],
                    [
                        2.0737983,
                        50.8762342
                    ],
                    [
                        2.0737769,
                        50.8762653
                    ],
                    [
                        2.0737719,
                        50.8762961
                    ],
                    [
                        2.0737769,
                        50.8763261
                    ],
                    [
                        2.0738079,
                        50.876377
                    ],
                    [
                        2.0739707,
                        50.8765599
                    ],
                    [
                        2.0739868,
                        50.8765897
                    ],
                    [
                        2.0739939,
                        50.8766122
                    ],
                    [
                        2.0739903,
                        50.8766423
                    ],
                    [
                        2.0739311,
                        50.8767417
                    ],
                    [
                        2.0739009,
                        50.8768017
                    ],
                    [
                        2.0730851,
                        50.8769432
                    ],
                    [
                        2.0721709,
                        50.8774766
                    ],
                    [
                        2.072145,
                        50.8775006
                    ]
                ]
            },
            "merged_links_id": [],
            "merged_links_coords": [],
            "id": "way/89475884"
        },
        {
            "type": "Feature",
            "properties": {
                "@id": "way/103540066_0",
                "highway": "residential",
                "name": "Rue des Coquelicots",
                "roundabout": false
            },
            "geometry": {
                "type": "LineString",
                "coordinates": [
                    [
                        2.0718894,
                        50.8760587
                    ],
                    [
                        2.0718816,
                        50.8760425
                    ],
                    [
                        2.0718611,
                        50.8759997
                    ],
                    [
                        2.0718384,
                        50.8759491
                    ],
                    [
                        2.0717978,
                        50.8758874
                    ],
                    [
                        2.0715385,
                        50.8756495
                    ],
                    [
                        2.0715047,
                        50.8755939
                    ],
                    [
                        2.0715121,
                        50.875559
                    ],
                    [
                        2.0715423,
                        50.8755237
                    ],
                    [
                        2.0719647,
                        50.8752628
                    ],
                    [
                        2.0719756,
                        50.8752251
                    ],
                    [
                        2.0719607,
                        50.875174
                    ],
                    [
                        2.0718424,
                        50.8750492
                    ],
                    [
                        2.0713458,
                        50.8745249
                    ],
                    [
                        2.0712888,
                        50.8744984
                    ],
                    [
                        2.0712229,
                        50.8744795
                    ],
                    [
                        2.0709644,
                        50.8744801
                    ]
                ]
            },
            "merged_links_id": [],
            "merged_links_coords": [],
            "id": "way/103540066_0"
        },
        {
            "type": "Feature",
            "properties": {
                "@id": "way/103540066_1",
                "highway": "residential",
                "name": "Rue des Coquelicots",
                "roundabout": false
            },
            "geometry": {
                "type": "LineString",
                "coordinates": [
                    [
                        2.0709644,
                        50.8744801
                    ],
                    [
                        2.0706156,
                        50.8744809
                    ],
                    [
                        2.0704572,
                        50.8744353
                    ],
                    [
                        2.0704136,
                        50.8744083
                    ]
                ]
            },
            "merged_links_id": [],
            "merged_links_coords": [],
            "id": "way/103540066_1"
        },
        {
            "type": "Feature",
            "properties": {
                "@id": "way/103540066_2",
                "highway": "residential",
                "name": "Rue des Coquelicots",
                "roundabout": false
            },
            "geometry": {
                "type": "LineString",
                "coordinates": [
                    [
                        2.0704136,
                        50.8744083
                    ],
                    [
                        2.07008,
                        50.8742019
                    ],
                    [
                        2.0698583,
                        50.8740721
                    ],
                    [
                        2.0696609,
                        50.8737591
                    ]
                ]
            },
            "merged_links_id": [],
            "merged_links_coords": [],
            "id": "way/103540066_2"
        },
        {
            "type": "Feature",
            "properties": {
                "@id": "way/109156238_0",
                "highway": "residential",
                "name": "Rue de la Chapelle",
                "roundabout": false
            },
            "geometry": {
                "type": "LineString",
                "coordinates": [
                    [
                        2.0664204,
                        50.8736392
                    ],
                    [
                        2.0664697,
                        50.8736617
                    ],
                    [
                        2.067002,
                        50.8739048
                    ],
                    [
                        2.0673369,
                        50.8741457
                    ],
                    [
                        2.0679618,
                        50.8745538
                    ],
                    [
                        2.0680834,
                        50.8746177
                    ]
                ]
            },
            "merged_links_id": [],
            "merged_links_coords": [],
            "id": "way/109156238_0"
        },
        {
            "type": "Feature",
            "properties": {
                "@id": "way/109156238_1",
                "highway": "residential",
                "name": "Rue de la Chapelle",
                "roundabout": false
            },
            "geometry": {
                "type": "LineString",
                "coordinates": [
                    [
                        2.0680834,
                        50.8746177
                    ],
                    [
                        2.0681252,
                        50.8746396
                    ]
                ]
            },
            "merged_links_id": [],
            "merged_links_coords": [],
            "id": "way/109156238_1"
        },
        {
            "type": "Feature",
            "properties": {
                "@id": "way/109156238_2",
                "highway": "residential",
                "name": "Rue de la Chapelle",
                "roundabout": false
            },
            "geometry": {
                "type": "LineString",
                "coordinates": [
                    [
                        2.0681252,
                        50.8746396
                    ],
                    [
                        2.0689201,
                        50.8751251
                    ],
                    [
                        2.0691838,
                        50.8752966
                    ],
                    [
                        2.0697145,
                        50.8757037
                    ],
                    [
                        2.0703348,
                        50.8762205
                    ],
                    [
                        2.0704014,
                        50.876276
                    ]
                ]
            },
            "merged_links_id": [],
            "merged_links_coords": [],
            "id": "way/109156238_2"
        },
        {
            "type": "Feature",
            "properties": {
                "@id": "way/109156262_0",
                "highway": "secondary",
                "name": "Rue du Ch\u00e2teau d'Eau",
                "roundabout": false
            },
            "geometry": {
                "type": "LineString",
                "coordinates": [
                    [
                        2.063734,
                        50.8771382
                    ],
                    [
                        2.0639243,
                        50.8767203
                    ],
                    [
                        2.0640135,
                        50.876547
                    ],
                    [
                        2.0641381,
                        50.8763152
                    ],
                    [
                        2.06433,
                        50.8760021
                    ],
                    [
                        2.0647962,
                        50.8753316
                    ],
                    [
                        2.0653863,
                        50.8747088
                    ],
                    [
                        2.0664204,
                        50.8736392
                    ]
                ]
            },
            "merged_links_id": [],
            "merged_links_coords": [],
            "id": "way/109156262_0"
        },
        {
            "type": "Feature",
            "properties": {
                "@id": "way/109156262_1",
                "highway": "secondary",
                "name": "Rue du Ch\u00e2teau d'Eau",
                "roundabout": false
            },
            "geometry": {
                "type": "LineString",
                "coordinates": [
                    [
                        2.0664204,
                        50.8736392
                    ]
                ]
            },
            "merged_links_id": [],
            "merged_links_coords": [],
            "id": "way/109156262_1"
        },
        {
            "type": "Feature",
            "properties": {
                "@id": "way/109156262_2",
                "highway": "secondary",
                "name": "Rue du Ch\u00e2teau d'Eau",
                "roundabout": false
            },
            "geometry": {
                "type": "LineString",
                "coordinates": [
                    [
                        2.0664204,
                        50.8736392
                    ],
                    [
                        2.0665602,
                        50.8735131
                    ],
                    [
                        2.0669748,
                        50.8731391
                    ],
                    [
                        2.0670029,
                        50.8731171
                    ],
                    [
                        2.0670171,
                        50.8731059
                    ],
                    [
                        2.06724,
                        50.8729309
                    ]
                ]
            },
            "merged_links_id": [],
            "merged_links_coords": [],
            "id": "way/109156262_2"
        },
        {
            "type": "Feature",
            "properties": {
                "@id": "way/109156262_3",
                "highway": "secondary",
                "name": "Rue du Ch\u00e2teau d'Eau",
                "roundabout": false
            },
            "geometry": {
                "type": "LineString",
                "coordinates": [
                    [
                        2.06724,
                        50.8729309
                    ],
                    [
                        2.0672776,
                        50.872907
                    ],
                    [
                        2.0672886,
                        50.8729
                    ],
                    [
                        2.0673474,
                        50.8728627
                    ],
                    [
                        2.0674996,
                        50.8727661
                    ],
                    [
                        2.0677955,
                        50.8725781
                    ]
                ]
            },
            "merged_links_id": [],
            "merged_links_coords": [],
            "id": "way/109156262_3"
        },
        {
            "type": "Feature",
            "properties": {
                "@id": "way/109156262_4",
                "highway": "secondary",
                "name": "Rue du Ch\u00e2teau d'Eau",
                "roundabout": false
            },
            "geometry": {
                "type": "LineString",
                "coordinates": [
                    [
                        2.0677955,
                        50.8725781
                    ],
                    [
                        2.0684914,
                        50.8721043
                    ],
                    [
                        2.0687721,
                        50.8718982
                    ]
                ]
            },
            "merged_links_id": [],
            "merged_links_coords": [],
            "id": "way/109156262_4"
        },
        {
            "type": "Feature",
            "properties": {
                "@id": "way/109156262_5",
                "highway": "secondary",
                "name": "Rue du Ch\u00e2teau d'Eau",
                "roundabout": false
            },
            "geometry": {
                "type": "LineString",
                "coordinates": [
                    [
                        2.0687721,
                        50.8718982
                    ],
                    [
                        2.0693342,
                        50.8713118
                    ],
                    [
                        2.0696676,
                        50.8709908
                    ],
                    [
                        2.069807,
                        50.8708605
                    ]
                ]
            },
            "merged_links_id": [],
            "merged_links_coords": [],
            "id": "way/109156262_5"
        },
        {
            "type": "Feature",
            "properties": {
                "@id": "way/109156272_0",
                "highway": "residential",
                "name": "Rue Edmond Dupont",
                "roundabout": false
            },
            "geometry": {
                "type": "LineString",
                "coordinates": [
                    [
                        2.070732,
                        50.876507
                    ],
                    [
                        2.070766,
                        50.8765284
                    ],
                    [
                        2.0710022,
                        50.8766864
                    ],
                    [
                        2.0712374,
                        50.8768573
                    ],
                    [
                        2.0713615,
                        50.8769446
                    ],
                    [
                        2.071447,
                        50.8770056
                    ],
                    [
                        2.0715489,
                        50.8770786
                    ],
                    [
                        2.0717864,
                        50.8772486
                    ],
                    [
                        2.0718395,
                        50.8772848
                    ],
                    [
                        2.0720571,
                        50.8774368
                    ],
                    [
                        2.072145,
                        50.8775006
                    ]
                ]
            },
            "merged_links_id": [],
            "merged_links_coords": [],
            "id": "way/109156272_0"
        },
        {
            "type": "Feature",
            "properties": {
                "@id": "way/109156272_1",
                "highway": "residential",
                "name": "Rue Edmond Dupont",
                "roundabout": false
            },
            "geometry": {
                "type": "LineString",
                "coordinates": [
                    [
                        2.072145,
                        50.8775006
                    ],
                    [
                        2.0722033,
                        50.8775547
                    ],
                    [
                        2.0725576,
                        50.8778782
                    ],
                    [
                        2.0726149,
                        50.8779177
                    ],
                    [
                        2.0727186,
                        50.8779912
                    ],
                    [
                        2.0727272,
                        50.8780516
                    ]
                ]
            },
            "merged_links_id": [],
            "merged_links_coords": [],
            "id": "way/109156272_1"
        },
        {
            "type": "Feature",
            "properties": {
                "@id": "way/109187089",
                "highway": "tertiary",
                "name": "Rue Carnot",
                "roundabout": false
            },
            "geometry": {
                "type": "LineString",
                "coordinates": [
                    [
                        2.0835255,
                        50.8742431
                    ],
                    [
                        2.0834177,
                        50.8742555
                    ],
                    [
                        2.0833512,
                        50.8742632
                    ],
                    [
                        2.0831771,
                        50.8742804
                    ],
                    [
                        2.0827131,
                        50.8743478
                    ],
                    [
                        2.0824271,
                        50.8743893
                    ],
                    [
                        2.0820507,
                        50.874444
                    ],
                    [
                        2.0815076,
                        50.8745229
                    ],
                    [
                        2.0805624,
                        50.8746602
                    ],
                    [
                        2.0804172,
                        50.8746722
                    ],
                    [
                        2.0802962,
                        50.8746775
                    ],
                    [
                        2.0800912,
                        50.8746816
                    ],
                    [
                        2.0794796,
                        50.8746802
                    ],
                    [
                        2.0793061,
                        50.8746913
                    ],
                    [
                        2.0791229,
                        50.8747083
                    ],
                    [
                        2.0786009,
                        50.8747665
                    ],
                    [
                        2.0771023,
                        50.8749687
                    ],
                    [
                        2.0769922,
                        50.8749836
                    ],
                    [
                        2.0768864,
                        50.8749993
                    ],
                    [
                        2.0766865,
                        50.8750289
                    ],
                    [
                        2.0765445,
                        50.8750499
                    ],
                    [
                        2.0764805,
                        50.87506
                    ],
                    [
                        2.0757541,
                        50.8751745
                    ],
                    [
                        2.0755148,
                        50.8752079
                    ],
                    [
                        2.0753157,
                        50.8752496
                    ],
                    [
                        2.0752913,
                        50.8752548
                    ],
                    [
                        2.075196,
                        50.8752752
                    ]
                ]
            },
            "merged_links_id": [],
            "merged_links_coords": [],
            "id": "way/109187089"
        },
        {
            "type": "Feature",
            "properties": {
                "@id": "way/109355105_0",
                "highway": "residential",
                "name": "Rue Virginie Plachier",
                "roundabout": false
            },
            "geometry": {
                "type": "LineString",
                "coordinates": [
                    [
                        2.06724,
                        50.8729309
                    ],
                    [
                        2.0672936,
                        50.8729659
                    ],
                    [
                        2.0677704,
                        50.8732777
                    ]
                ]
            },
            "merged_links_id": [],
            "merged_links_coords": [],
            "id": "way/109355105_0"
        },
        {
            "type": "Feature",
            "properties": {
                "@id": "way/109355105_1",
                "highway": "residential",
                "name": "Rue Virginie Plachier",
                "roundabout": false
            },
            "geometry": {
                "type": "LineString",
                "coordinates": [
                    [
                        2.0677704,
                        50.8732777
                    ],
                    [
                        2.0680038,
                        50.873424
                    ]
                ]
            },
            "merged_links_id": [],
            "merged_links_coords": [],
            "id": "way/109355105_1"
        },
        {
            "type": "Feature",
            "properties": {
                "@id": "way/109355105_2",
                "highway": "residential",
                "name": "Rue Virginie Plachier",
                "roundabout": false
            },
            "geometry": {
                "type": "LineString",
                "coordinates": [
                    [
                        2.0680038,
                        50.873424
                    ],
                    [
                        2.0681762,
                        50.8735251
                    ]
                ]
            },
            "merged_links_id": [],
            "merged_links_coords": [],
            "id": "way/109355105_2"
        },
        {
            "type": "Feature",
            "properties": {
                "@id": "way/109355111",
                "highway": "residential",
                "name": "Place Virginie Plachier",
                "roundabout": false
            },
            "geometry": {
                "type": "LineString",
                "coordinates": [
                    [
                        2.0677704,
                        50.8732777
                    ],
                    [
                        2.0674652,
                        50.8735852
                    ]
                ]
            },
            "merged_links_id": [],
            "merged_links_coords": [],
            "id": "way/109355111"
        },
        {
            "type": "Feature",
            "properties": {
                "@id": "way/109355112",
                "highway": "residential",
                "name": "Place Virginie Plachier",
                "roundabout": false
            },
            "geometry": {
                "type": "LineString",
                "coordinates": [
                    [
                        2.0676254,
                        50.8736956
                    ],
                    [
                        2.0680038,
                        50.873424
                    ]
                ]
            },
            "merged_links_id": [],
            "merged_links_coords": [],
            "id": "way/109355112"
        },
        {
            "type": "Feature",
            "properties": {
                "@id": "way/109355121",
                "highway": "residential",
                "name": "R\u00e9sidence le Chenelet",
                "roundabout": false
            },
            "geometry": {
                "type": "LineString",
                "coordinates": [
                    [
                        2.0704018,
                        50.8702495
                    ],
                    [
                        2.0704722,
                        50.8702588
                    ],
                    [
                        2.0706237,
                        50.8702599
                    ],
                    [
                        2.0708154,
                        50.8702472
                    ],
                    [
                        2.0709442,
                        50.870193
                    ],
                    [
                        2.0710514,
                        50.8700712
                    ],
                    [
                        2.0709334,
                        50.8699899
                    ]
                ]
            },
            "merged_links_id": [],
            "merged_links_coords": [],
            "id": "way/109355121"
        },
        {
            "type": "Feature",
            "properties": {
                "@id": "way/109355123_0",
                "highway": "residential",
                "name": "Rue des Bleuets",
                "roundabout": false
            },
            "geometry": {
                "type": "LineString",
                "coordinates": [
                    [
                        2.0681252,
                        50.8746396
                    ],
                    [
                        2.0681601,
                        50.8746102
                    ],
                    [
                        2.0691156,
                        50.8739174
                    ],
                    [
                        2.0692132,
                        50.8738711
                    ],
                    [
                        2.0696609,
                        50.8737591
                    ]
                ]
            },
            "merged_links_id": [],
            "merged_links_coords": [],
            "id": "way/109355123_0"
        },
        {
            "type": "Feature",
            "properties": {
                "@id": "way/109355123_1",
                "highway": "residential",
                "name": "Rue des Bleuets",
                "roundabout": false
            },
            "geometry": {
                "type": "LineString",
                "coordinates": [
                    [
                        2.0696609,
                        50.8737591
                    ]
                ]
            },
            "merged_links_id": [],
            "merged_links_coords": [],
            "id": "way/109355123_1"
        },
        {
            "type": "Feature",
            "properties": {
                "@id": "way/109355123_2",
                "highway": "residential",
                "name": "Rue des Bleuets",
                "roundabout": false
            },
            "geometry": {
                "type": "LineString",
                "coordinates": [
                    [
                        2.0696609,
                        50.8737591
                    ],
                    [
                        2.0697915,
                        50.8737241
                    ],
                    [
                        2.0702296,
                        50.8736066
                    ],
                    [
                        2.0704597,
                        50.8734412
                    ]
                ]
            },
            "merged_links_id": [],
            "merged_links_coords": [],
            "id": "way/109355123_2"
        },
        {
            "type": "Feature",
            "properties": {
                "@id": "way/109355124_0",
                "highway": "residential",
                "name": "Place Virginie Plachier",
                "roundabout": false
            },
            "geometry": {
                "type": "LineString",
                "coordinates": [
                    [
                        2.067232,
                        50.8734429
                    ],
                    [
                        2.0674652,
                        50.8735852
                    ]
                ]
            },
            "merged_links_id": [],
            "merged_links_coords": [],
            "id": "way/109355124_0"
        },
        {
            "type": "Feature",
            "properties": {
                "@id": "way/109355124_1",
                "highway": "residential",
                "name": "Place Virginie Plachier",
                "roundabout": false
            },
            "geometry": {
                "type": "LineString",
                "coordinates": [
                    [
                        2.0674652,
                        50.8735852
                    ],
                    [
                        2.0676254,
                        50.8736956
                    ]
                ]
            },
            "merged_links_id": [],
            "merged_links_coords": [],
            "id": "way/109355124_1"
        },
        {
            "type": "Feature",
            "properties": {
                "@id": "way/109355124_2",
                "highway": "residential",
                "name": "Place Virginie Plachier",
                "roundabout": false
            },
            "geometry": {
                "type": "LineString",
                "coordinates": [
                    [
                        2.0676254,
                        50.8736956
                    ],
                    [
                        2.0678328,
                        50.8738288
                    ]
                ]
            },
            "merged_links_id": [],
            "merged_links_coords": [],
            "id": "way/109355124_2"
        },
        {
            "type": "Feature",
            "properties": {
                "@id": "way/110346432_0",
                "highway": "tertiary",
                "name": "Rue de la Chapelle",
                "roundabout": false
            },
            "geometry": {
                "type": "LineString",
                "coordinates": [
                    [
                        2.0512679,
                        50.8683309
                    ],
                    [
                        2.0509354,
                        50.8685743
                    ],
                    [
                        2.0502262,
                        50.8692062
                    ],
                    [
                        2.0509246,
                        50.8697325
                    ],
                    [
                        2.0515673,
                        50.8700864
                    ],
                    [
                        2.0520083,
                        50.8702332
                    ],
                    [
                        2.0523194,
                        50.8703212
                    ],
                    [
                        2.0536284,
                        50.8704905
                    ],
                    [
                        2.0546798,
                        50.8706462
                    ],
                    [
                        2.0549909,
                        50.8706665
                    ],
                    [
                        2.0556335,
                        50.8706486
                    ],
                    [
                        2.0565079,
                        50.8708378
                    ],
                    [
                        2.0567075,
                        50.8709072
                    ],
                    [
                        2.0579509,
                        50.8713353
                    ],
                    [
                        2.059207,
                        50.8717297
                    ],
                    [
                        2.0597219,
                        50.8718752
                    ],
                    [
                        2.0600089,
                        50.8719326
                    ],
                    [
                        2.0600438,
                        50.8719396
                    ],
                    [
                        2.0605634,
                        50.872121
                    ],
                    [
                        2.0611599,
                        50.8723289
                    ],
                    [
                        2.0618267,
                        50.8724955
                    ],
                    [
                        2.0624482,
                        50.8726465
                    ],
                    [
                        2.0628994,
                        50.8727481
                    ],
                    [
                        2.0634294,
                        50.8728871
                    ],
                    [
                        2.0636296,
                        50.8729374
                    ],
                    [
                        2.0640977,
                        50.8730593
                    ],
                    [
                        2.0644395,
                        50.8731482
                    ],
                    [
                        2.0645009,
                        50.8731638
                    ],
                    [
                        2.0648745,
                        50.8732615
                    ],
                    [
                        2.0652783,
                        50.8733521
                    ]
                ]
            },
            "merged_links_id": [],
            "merged_links_coords": [],
            "id": "way/110346432_0"
        },
        {
            "type": "Feature",
            "properties": {
                "@id": "way/110346432_1",
                "highway": "tertiary",
                "name": "Rue de la Chapelle",
                "roundabout": false
            },
            "geometry": {
                "type": "LineString",
                "coordinates": [
                    [
                        2.0652783,
                        50.8733521
                    ],
                    [
                        2.0658293,
                        50.8734731
                    ],
                    [
                        2.0663619,
                        50.8736228
                    ],
                    [
                        2.0664204,
                        50.8736392
                    ]
                ]
            },
            "merged_links_id": [],
            "merged_links_coords": [],
            "id": "way/110346432_1"
        },
        {
            "type": "Feature",
            "properties": {
                "@id": "way/110346436",
                "highway": "tertiary",
                "name": "Rue de la Montoire",
                "roundabout": false
            },
            "geometry": {
                "type": "LineString",
                "coordinates": [
                    [
                        2.0687721,
                        50.8718982
                    ],
                    [
                        2.0687126,
                        50.8718651
                    ],
                    [
                        2.0681654,
                        50.8715602
                    ],
                    [
                        2.0678543,
                        50.8714181
                    ],
                    [
                        2.0674845,
                        50.8713011
                    ],
                    [
                        2.0670389,
                        50.8711134
                    ],
                    [
                        2.0668672,
                        50.8709644
                    ],
                    [
                        2.0666526,
                        50.8708493
                    ],
                    [
                        2.0662986,
                        50.8707207
                    ],
                    [
                        2.065805,
                        50.8705379
                    ],
                    [
                        2.0648293,
                        50.8702129
                    ],
                    [
                        2.0644859,
                        50.870091
                    ],
                    [
                        2.0630161,
                        50.8693665
                    ],
                    [
                        2.0597331,
                        50.8677957
                    ],
                    [
                        2.0580701,
                        50.8669967
                    ],
                    [
                        2.0549265,
                        50.8655002
                    ]
                ]
            },
            "merged_links_id": [],
            "merged_links_coords": [],
            "id": "way/110346436"
        },
        {
            "type": "Feature",
            "properties": {
                "@id": "way/110346439",
                "highway": "residential",
                "name": "Rue du Mont Hulin",
                "roundabout": false
            },
            "geometry": {
                "type": "LineString",
                "coordinates": [
                    [
                        2.0652783,
                        50.8733521
                    ],
                    [
                        2.0650783,
                        50.8736322
                    ],
                    [
                        2.0647864,
                        50.8739535
                    ],
                    [
                        2.0646693,
                        50.8741078
                    ],
                    [
                        2.0645177,
                        50.8742652
                    ],
                    [
                        2.0643177,
                        50.8744543
                    ],
                    [
                        2.0640081,
                        50.8747238
                    ],
                    [
                        2.0638889,
                        50.8748529
                    ],
                    [
                        2.0638096,
                        50.8749388
                    ],
                    [
                        2.0637811,
                        50.8749904
                    ],
                    [
                        2.0636272,
                        50.8752689
                    ],
                    [
                        2.0635682,
                        50.8753958
                    ],
                    [
                        2.0632096,
                        50.875723
                    ],
                    [
                        2.063072,
                        50.8758324
                    ],
                    [
                        2.0628548,
                        50.8759881
                    ],
                    [
                        2.0626831,
                        50.8761845
                    ],
                    [
                        2.0623566,
                        50.8764673
                    ],
                    [
                        2.0621149,
                        50.8766514
                    ],
                    [
                        2.0618701,
                        50.8768886
                    ],
                    [
                        2.0618167,
                        50.8769308
                    ],
                    [
                        2.0616236,
                        50.8771153
                    ],
                    [
                        2.0613243,
                        50.8773412
                    ],
                    [
                        2.0611462,
                        50.8774707
                    ],
                    [
                        2.0610933,
                        50.8775068
                    ],
                    [
                        2.0610216,
                        50.8775558
                    ]
                ]
            },
            "merged_links_id": [],
            "merged_links_coords": [],
            "id": "way/110346439"
        },
        {
            "type": "Feature",
            "properties": {
                "@id": "way/137053214",
                "highway": "residential",
                "name": "Rue des Coquelicots",
                "roundabout": false
            },
            "geometry": {
                "type": "LineString",
                "coordinates": [
                    [
                        2.0706233,
                        50.8750396
                    ],
                    [
                        2.0704086,
                        50.8748729
                    ],
                    [
                        2.0701722,
                        50.8746893
                    ],
                    [
                        2.0701328,
                        50.8746454
                    ],
                    [
                        2.0701337,
                        50.8745989
                    ],
                    [
                        2.0701581,
                        50.8745646
                    ],
                    [
                        2.0704136,
                        50.8744083
                    ]
                ]
            },
            "merged_links_id": [],
            "merged_links_coords": [],
            "id": "way/137053214"
        },
        {
            "type": "Feature",
            "properties": {
                "@id": "way/137053216",
                "highway": "residential",
                "name": "R\u00e9sidence le Jean Bart",
                "roundabout": false
            },
            "geometry": {
                "type": "LineString",
                "coordinates": [
                    [
                        2.0712702,
                        50.8728123
                    ],
                    [
                        2.0722397,
                        50.872161
                    ],
                    [
                        2.072261,
                        50.8721467
                    ]
                ]
            },
            "merged_links_id": [],
            "merged_links_coords": [],
            "id": "way/137053216"
        },
        {
            "type": "Feature",
            "properties": {
                "@id": "way/137053218",
                "highway": "residential",
                "name": "All\u00e9e des Aub\u00e9pines",
                "roundabout": false
            },
            "geometry": {
                "type": "LineString",
                "coordinates": [
                    [
                        2.0692182,
                        50.8686541
                    ],
                    [
                        2.070244,
                        50.8678267
                    ],
                    [
                        2.0704333,
                        50.8677927
                    ]
                ]
            },
            "merged_links_id": [],
            "merged_links_coords": [],
            "id": "way/137053218"
        },
        {
            "type": "Feature",
            "properties": {
                "@id": "way/137053766_0",
                "highway": "residential",
                "name": "Impasse des Horlogers",
                "roundabout": false
            },
            "geometry": {
                "type": "LineString",
                "coordinates": [
                    [
                        2.066062,
                        50.8760261
                    ],
                    [
                        2.0662695,
                        50.8758375
                    ]
                ]
            },
            "merged_links_id": [],
            "merged_links_coords": [],
            "id": "way/137053766_0"
        },
        {
            "type": "Feature",
            "properties": {
                "@id": "way/137053766_1",
                "highway": "residential",
                "name": "Impasse des Horlogers",
                "roundabout": false
            },
            "geometry": {
                "type": "LineString",
                "coordinates": [
                    [
                        2.0662695,
                        50.8758375
                    ],
                    [
                        2.0663567,
                        50.8757582
                    ]
                ]
            },
            "merged_links_id": [],
            "merged_links_coords": [],
            "id": "way/137053766_1"
        },
        {
            "type": "Feature",
            "properties": {
                "@id": "way/137053770",
                "highway": "residential",
                "name": "Impasse des Horlogers",
                "roundabout": false
            },
            "geometry": {
                "type": "LineString",
                "coordinates": [
                    [
                        2.0662695,
                        50.8758375
                    ],
                    [
                        2.0664862,
                        50.8759304
                    ],
                    [
                        2.0664988,
                        50.8759621
                    ],
                    [
                        2.0666727,
                        50.8763904
                    ]
                ]
            },
            "merged_links_id": [],
            "merged_links_coords": [],
            "id": "way/137053770"
        },
        {
            "type": "Feature",
            "properties": {
                "@id": "way/137053773_0",
                "highway": "residential",
                "name": "Rue des Chapeliers",
                "oneway": "yes",
                "roundabout": false
            },
            "geometry": {
                "type": "LineString",
                "coordinates": [
                    [
                        2.0671315,
                        50.8754097
                    ],
                    [
                        2.066472,
                        50.875144
                    ],
                    [
                        2.066317,
                        50.8751724
                    ],
                    [
                        2.0659484,
                        50.8755268
                    ],
                    [
                        2.0658142,
                        50.8755948
                    ],
                    [
                        2.0649812,
                        50.8764469
                    ],
                    [
                        2.0650319,
                        50.876627
                    ],
                    [
                        2.0666727,
                        50.8763904
                    ]
                ]
            },
            "merged_links_id": [
                "way/137053778_2",
                "way/137053773_0"
            ],
            "merged_links_coords": [
                [
                    [
                        2.0671315,
                        50.8754097
                    ],
                    [
                        2.0650319,
                        50.876627
                    ]
                ],
                [
                    [
                        2.0650319,
                        50.876627
                    ],
                    [
                        2.0666727,
                        50.8763904
                    ]
                ]
            ],
            "id": "way/137053773_0"
        },
        {
            "type": "Feature",
            "properties": {
                "@id": "way/137053773_1",
                "highway": "residential",
                "name": "Rue des Chapeliers",
                "oneway": "yes",
                "roundabout": false
            },
            "geometry": {
                "type": "LineString",
                "coordinates": [
                    [
                        2.0666727,
                        50.8763904
                    ],
                    [
                        2.0677139,
                        50.8762403
                    ],
                    [
                        2.068164,
                        50.8758624
                    ]
                ]
            },
            "merged_links_id": [],
            "merged_links_coords": [],
            "id": "way/137053773_1"
        },
        {
            "type": "Feature",
            "properties": {
                "@id": "way/137053778_0",
                "highway": "residential",
                "name": "Rue des Brasseurs",
                "oneway": "yes",
                "roundabout": false
            },
            "geometry": {
                "type": "LineString",
                "coordinates": [
                    [
                        2.068164,
                        50.8758624
                    ],
                    [
                        2.0672534,
                        50.8754588
                    ]
                ]
            },
            "merged_links_id": [],
            "merged_links_coords": [],
            "id": "way/137053778_0"
        },
        {
            "type": "Feature",
            "properties": {
                "@id": "way/137053778_1",
                "highway": "residential",
                "name": "Rue des Brasseurs",
                "oneway": "yes",
                "roundabout": false
            },
            "geometry": {
                "type": "LineString",
                "coordinates": [
                    [
                        2.0672534,
                        50.8754588
                    ],
                    [
                        2.0671315,
                        50.8754097
                    ]
                ]
            },
            "merged_links_id": [],
            "merged_links_coords": [],
            "id": "way/137053778_1"
        },
        {
            "type": "Feature",
            "properties": {
                "@id": "way/137160464_0",
                "highway": "residential",
                "name": "Impasse des Forgerons",
                "roundabout": false
            },
            "geometry": {
                "type": "LineString",
                "coordinates": [
                    [
                        2.0671566,
                        50.8748146
                    ],
                    [
                        2.0675983,
                        50.8749883
                    ]
                ]
            },
            "merged_links_id": [],
            "merged_links_coords": [],
            "id": "way/137160464_0"
        },
        {
            "type": "Feature",
            "properties": {
                "@id": "way/137160464_1",
                "highway": "residential",
                "name": "Impasse des Forgerons",
                "roundabout": false
            },
            "geometry": {
                "type": "LineString",
                "coordinates": [
                    [
                        2.0675983,
                        50.8749883
                    ],
                    [
                        2.0677043,
                        50.8750279
                    ]
                ]
            },
            "merged_links_id": [],
            "merged_links_coords": [],
            "id": "way/137160464_1"
        },
        {
            "type": "Feature",
            "properties": {
                "@id": "way/152597295_0",
                "highway": "secondary",
                "name": "secondary",
                "roundabout": true
            },
            "geometry": {
                "type": "LineString",
                "coordinates": [
                    [
                        2.0702321,
                        50.8707545
                    ],
                    [
                        2.0701859,
                        50.8707529
                    ]
                ]
            },
            "merged_links_id": [],
            "merged_links_coords": [],
            "id": "way/152597295_0"
        },
        {
            "type": "Feature",
            "properties": {
                "@id": "way/152597295_1",
                "highway": "secondary",
                "name": "secondary",
                "roundabout": true
            },
            "geometry": {
                "type": "LineString",
                "coordinates": [
                    [
                        2.0701859,
                        50.8707529
                    ],
                    [
                        2.0701345,
                        50.8707441
                    ],
                    [
                        2.0700875,
                        50.8707282
                    ],
                    [
                        2.0700474,
                        50.870706
                    ],
                    [
                        2.0700162,
                        50.8706787
                    ],
                    [
                        2.0699956,
                        50.8706477
                    ],
                    [
                        2.0699866,
                        50.8706145
                    ]
                ]
            },
            "merged_links_id": [],
            "merged_links_coords": [],
            "id": "way/152597295_1"
        },
        {
            "type": "Feature",
            "properties": {
                "@id": "way/152597295_2",
                "highway": "secondary",
                "name": "secondary",
                "roundabout": true
            },
            "geometry": {
                "type": "LineString",
                "coordinates": [
                    [
                        2.0699866,
                        50.8706145
                    ],
                    [
                        2.0699905,
                        50.8705778
                    ],
                    [
                        2.0700086,
                        50.8705429
                    ],
                    [
                        2.0700397,
                        50.8705118
                    ],
                    [
                        2.070082,
                        50.8704865
                    ],
                    [
                        2.0701329,
                        50.8704685
                    ]
                ]
            },
            "merged_links_id": [],
            "merged_links_coords": [],
            "id": "way/152597295_2"
        },
        {
            "type": "Feature",
            "properties": {
                "@id": "way/152597298",
                "highway": "tertiary",
                "name": "Rue du G\u00e9n\u00e9ral Leclerc",
                "roundabout": false
            },
            "geometry": {
                "type": "LineString",
                "coordinates": [
                    [
                        2.0756351,
                        50.8757185
                    ],
                    [
                        2.0756614,
                        50.8757368
                    ],
                    [
                        2.0758506,
                        50.8758643
                    ],
                    [
                        2.0759185,
                        50.87591
                    ],
                    [
                        2.077319,
                        50.8767904
                    ]
                ]
            },
            "merged_links_id": [],
            "merged_links_coords": [],
            "id": "way/152597298"
        },
        {
            "type": "Feature",
            "properties": {
                "@id": "way/152597301",
                "highway": "secondary",
                "name": "secondary",
                "oneway": "yes",
                "roundabout": false
            },
            "geometry": {
                "type": "LineString",
                "coordinates": [
                    [
                        2.070381,
                        50.8702994
                    ],
                    [
                        2.0703917,
                        50.870362
                    ],
                    [
                        2.0703891,
                        50.8704086
                    ],
                    [
                        2.0703984,
                        50.8704543
                    ],
                    [
                        2.0704275,
                        50.8705343
                    ]
                ]
            },
            "merged_links_id": [],
            "merged_links_coords": [],
            "id": "way/152597301"
        },
        {
            "type": "Feature",
            "properties": {
                "@id": "way/230237024",
                "highway": "residential",
                "name": "Rue des Coquelicots",
                "roundabout": false
            },
            "geometry": {
                "type": "LineString",
                "coordinates": [
                    [
                        2.0696609,
                        50.8737591
                    ],
                    [
                        2.0695928,
                        50.8736522
                    ],
                    [
                        2.0694468,
                        50.8734228
                    ],
                    [
                        2.0686902,
                        50.8729494
                    ],
                    [
                        2.068524,
                        50.8728645
                    ],
                    [
                        2.0682751,
                        50.8728607
                    ],
                    [
                        2.0679244,
                        50.8726541
                    ],
                    [
                        2.0678429,
                        50.872606
                    ],
                    [
                        2.0677955,
                        50.8725781
                    ]
                ]
            },
            "merged_links_id": [],
            "merged_links_coords": [],
            "id": "way/230237024"
        },
        {
            "type": "Feature",
            "properties": {
                "@id": "way/384441856_0",
                "highway": "residential",
                "name": "Rue des Meuniers",
                "oneway": "yes",
                "roundabout": false
            },
            "geometry": {
                "type": "LineString",
                "coordinates": [
                    [
                        2.0671315,
                        50.8754097
                    ],
                    [
                        2.0675983,
                        50.8749883
                    ]
                ]
            },
            "merged_links_id": [],
            "merged_links_coords": [],
            "id": "way/384441856_0"
        },
        {
            "type": "Feature",
            "properties": {
                "@id": "way/384441856_1",
                "highway": "residential",
                "name": "Rue des Meuniers",
                "oneway": "yes",
                "roundabout": false
            },
            "geometry": {
                "type": "LineString",
                "coordinates": [
                    [
                        2.0675983,
                        50.8749883
                    ],
                    [
                        2.0678464,
                        50.8747704
                    ],
                    [
                        2.0679215,
                        50.8747374
                    ]
                ]
            },
            "merged_links_id": [],
            "merged_links_coords": [],
            "id": "way/384441856_1"
        },
        {
            "type": "Feature",
            "properties": {
                "@id": "way/539857097",
                "highway": "tertiary",
                "name": "Avenue des Alli\u00e9s",
                "roundabout": false
            },
            "geometry": {
                "type": "LineString",
                "coordinates": [
                    [
                        2.0754444,
                        50.8755298
                    ],
                    [
                        2.0754668,
                        50.8755524
                    ],
                    [
                        2.0754932,
                        50.8755792
                    ],
                    [
                        2.0755295,
                        50.8756159
                    ],
                    [
                        2.0755614,
                        50.8756461
                    ],
                    [
                        2.0756351,
                        50.8757185
                    ]
                ]
            },
            "merged_links_id": [],
            "merged_links_coords": [],
            "id": "way/539857097"
        },
        {
            "type": "Feature",
            "properties": {
                "@id": "way/558459296_0",
                "highway": "secondary",
                "name": "secondary",
                "roundabout": true
            },
            "geometry": {
                "type": "LineString",
                "coordinates": [
                    [
                        2.0701329,
                        50.8704685
                    ],
                    [
                        2.070199,
                        50.8704583
                    ],
                    [
                        2.070267,
                        50.8704604
                    ],
                    [
                        2.0703312,
                        50.8704747
                    ],
                    [
                        2.0703863,
                        50.8705001
                    ],
                    [
                        2.0704275,
                        50.8705343
                    ]
                ]
            },
            "merged_links_id": [],
            "merged_links_coords": [],
            "id": "way/558459296_0"
        },
        {
            "type": "Feature",
            "properties": {
                "@id": "way/558459296_1",
                "highway": "secondary",
                "name": "secondary",
                "roundabout": true
            },
            "geometry": {
                "type": "LineString",
                "coordinates": [
                    [
                        2.0704275,
                        50.8705343
                    ],
                    [
                        2.0704475,
                        50.8705646
                    ],
                    [
                        2.0704564,
                        50.8705969
                    ],
                    [
                        2.0704539,
                        50.8706297
                    ]
                ]
            },
            "merged_links_id": [],
            "merged_links_coords": [],
            "id": "way/558459296_1"
        },
        {
            "type": "Feature",
            "properties": {
                "@id": "way/558459296_2",
                "highway": "secondary",
                "name": "secondary",
                "roundabout": true
            },
            "geometry": {
                "type": "LineString",
                "coordinates": [
                    [
                        2.0704539,
                        50.8706297
                    ],
                    [
                        2.0704352,
                        50.8706684
                    ],
                    [
                        2.0704006,
                        50.8707025
                    ],
                    [
                        2.0703528,
                        50.8707294
                    ],
                    [
                        2.0702952,
                        50.8707472
                    ],
                    [
                        2.0702321,
                        50.8707545
                    ]
                ]
            },
            "merged_links_id": [],
            "merged_links_coords": [],
            "id": "way/558459296_2"
        },
        {
            "type": "Feature",
            "properties": {
                "@id": "way/558459297",
                "highway": "secondary",
                "name": "secondary",
                "oneway": "yes",
                "roundabout": false
            },
            "geometry": {
                "type": "LineString",
                "coordinates": [
                    [
                        2.0701329,
                        50.8704685
                    ],
                    [
                        2.0702161,
                        50.8704162
                    ],
                    [
                        2.0702844,
                        50.8703747
                    ],
                    [
                        2.0703261,
                        50.8703434
                    ],
                    [
                        2.070381,
                        50.8702994
                    ]
                ]
            },
            "merged_links_id": [],
            "merged_links_coords": [],
            "id": "way/558459297"
        },
        {
            "type": "Feature",
            "properties": {
                "@id": "way/558459298_0",
                "highway": "secondary",
                "name": "Route de Polincove",
                "roundabout": false
            },
            "geometry": {
                "type": "LineString",
                "coordinates": [
                    [
                        2.070965,
                        50.8694536
                    ],
                    [
                        2.0708698,
                        50.8695302
                    ]
                ]
            },
            "merged_links_id": [],
            "merged_links_coords": [],
            "id": "way/558459298_0"
        },
        {
            "type": "Feature",
            "properties": {
                "@id": "way/558459298_1",
                "highway": "secondary",
                "name": "Route de Polincove",
                "roundabout": false
            },
            "geometry": {
                "type": "LineString",
                "coordinates": [
                    [
                        2.0708698,
                        50.8695302
                    ],
                    [
                        2.0708044,
                        50.8695828
                    ],
                    [
                        2.0707217,
                        50.8696528
                    ],
                    [
                        2.0706439,
                        50.8697396
                    ],
                    [
                        2.0706149,
                        50.8697796
                    ],
                    [
                        2.070483,
                        50.8700065
                    ],
                    [
                        2.0704018,
                        50.8702495
                    ]
                ]
            },
            "merged_links_id": [],
            "merged_links_coords": [],
            "id": "way/558459298_1"
        },
        {
            "type": "Feature",
            "properties": {
                "@id": "way/558459298_2",
                "highway": "secondary",
                "name": "Route de Polincove",
                "roundabout": false
            },
            "geometry": {
                "type": "LineString",
                "coordinates": [
                    [
                        2.0704018,
                        50.8702495
                    ],
                    [
                        2.070381,
                        50.8702994
                    ]
                ]
            },
            "merged_links_id": [],
            "merged_links_coords": [],
            "id": "way/558459298_2"
        },
        {
            "type": "Feature",
            "properties": {
                "@id": "way/558459299",
                "highway": "tertiary",
                "name": "Avenue des Alli\u00e9s",
                "oneway": "yes",
                "roundabout": false
            },
            "geometry": {
                "type": "LineString",
                "coordinates": [
                    [
                        2.0706345,
                        50.8709358
                    ],
                    [
                        2.0705688,
                        50.8709104
                    ],
                    [
                        2.0704789,
                        50.8708402
                    ],
                    [
                        2.0704226,
                        50.8708131
                    ],
                    [
                        2.0703462,
                        50.8707784
                    ],
                    [
                        2.0703059,
                        50.8707632
                    ],
                    [
                        2.0702321,
                        50.8707545
                    ]
                ]
            },
            "merged_links_id": [],
            "merged_links_coords": [],
            "id": "way/558459299"
        },
        {
            "type": "Feature",
            "properties": {
                "@id": "way/558459300",
                "highway": "tertiary",
                "name": "tertiary",
                "oneway": "yes",
                "roundabout": false
            },
            "geometry": {
                "type": "LineString",
                "coordinates": [
                    [
                        2.0704539,
                        50.8706297
                    ],
                    [
                        2.0704642,
                        50.8706641
                    ],
                    [
                        2.0704778,
                        50.8707013
                    ],
                    [
                        2.0705044,
                        50.8707572
                    ],
                    [
                        2.0705326,
                        50.8707936
                    ],
                    [
                        2.070554,
                        50.8708343
                    ],
                    [
                        2.0706345,
                        50.8709358
                    ]
                ]
            },
            "merged_links_id": [],
            "merged_links_coords": [],
            "id": "way/558459300"
        },
        {
            "type": "Feature",
            "properties": {
                "@id": "way/558459301",
                "highway": "secondary",
                "name": "Rue du Ch\u00e2teau d'Eau",
                "oneway": "yes",
                "roundabout": false
            },
            "geometry": {
                "type": "LineString",
                "coordinates": [
                    [
                        2.0701859,
                        50.8707529
                    ],
                    [
                        2.070086,
                        50.8707733
                    ],
                    [
                        2.0699948,
                        50.8707987
                    ],
                    [
                        2.0698889,
                        50.8708368
                    ],
                    [
                        2.069807,
                        50.8708605
                    ]
                ]
            },
            "merged_links_id": [],
            "merged_links_coords": [],
            "id": "way/558459301"
        },
        {
            "type": "Feature",
            "properties": {
                "@id": "way/558459302",
                "highway": "secondary",
                "name": "secondary",
                "oneway": "yes",
                "roundabout": false
            },
            "geometry": {
                "type": "LineString",
                "coordinates": [
                    [
                        2.069807,
                        50.8708605
                    ],
                    [
                        2.0699197,
                        50.8707344
                    ],
                    [
                        2.0699599,
                        50.8706735
                    ],
                    [
                        2.0699866,
                        50.8706145
                    ]
                ]
            },
            "merged_links_id": [],
            "merged_links_coords": [],
            "id": "way/558459302"
        },
        {
            "type": "Feature",
            "properties": {
                "@id": "way/825818110",
                "highway": "secondary",
                "name": "Route de Polincove",
                "roundabout": false
            },
            "geometry": {
                "type": "LineString",
                "coordinates": [
                    [
                        2.070965,
                        50.8694536
                    ],
                    [
                        2.0711774,
                        50.8692767
                    ],
                    [
                        2.0726422,
                        50.868133
                    ],
                    [
                        2.0731078,
                        50.8677842
                    ],
                    [
                        2.0734535,
                        50.8675083
                    ]
                ]
            },
            "merged_links_id": [],
            "merged_links_coords": [],
            "id": "way/825818110"
        },
        {
            "type": "Feature",
            "properties": {
                "@id": "way/825818111_0",
                "highway": "tertiary",
                "name": "Route de Zutkerque",
                "roundabout": false
            },
            "geometry": {
                "type": "LineString",
                "coordinates": [
                    [
                        2.0701221,
                        50.8662907
                    ],
                    [
                        2.0701356,
                        50.8663577
                    ],
                    [
                        2.0702282,
                        50.8668157
                    ],
                    [
                        2.0702952,
                        50.8671949
                    ],
                    [
                        2.0704333,
                        50.8677927
                    ]
                ]
            },
            "merged_links_id": [],
            "merged_links_coords": [],
            "id": "way/825818111_0"
        },
        {
            "type": "Feature",
            "properties": {
                "@id": "way/825818111_1",
                "highway": "tertiary",
                "name": "Route de Zutkerque",
                "roundabout": false
            },
            "geometry": {
                "type": "LineString",
                "coordinates": [
                    [
                        2.0704333,
                        50.8677927
                    ],
                    [
                        2.0705718,
                        50.8686081
                    ],
                    [
                        2.0706766,
                        50.8691029
                    ],
                    [
                        2.0706937,
                        50.8691834
                    ],
                    [
                        2.0707142,
                        50.8692669
                    ]
                ]
            },
            "merged_links_id": [],
            "merged_links_coords": [],
            "id": "way/825818111_1"
        },
        {
            "type": "Feature",
            "properties": {
                "@id": "way/825818113",
                "highway": "tertiary",
                "name": "tertiary",
                "oneway": "yes",
                "roundabout": false
            },
            "geometry": {
                "type": "LineString",
                "coordinates": [
                    [
                        2.0707142,
                        50.8692669
                    ],
                    [
                        2.0708451,
                        50.8693278
                    ],
                    [
                        2.070955,
                        50.8693989
                    ],
                    [
                        2.070965,
                        50.8694536
                    ]
                ]
            },
            "merged_links_id": [],
            "merged_links_coords": [],
            "id": "way/825818113"
        },
        {
            "type": "Feature",
            "properties": {
                "@id": "way/825818114",
                "highway": "tertiary",
                "name": "Route de Zutkerque",
                "oneway": "yes",
                "roundabout": false
            },
            "geometry": {
                "type": "LineString",
                "coordinates": [
                    [
                        2.0708698,
                        50.8695302
                    ],
                    [
                        2.0707914,
                        50.869475
                    ],
                    [
                        2.0707244,
                        50.8693938
                    ],
                    [
                        2.0707142,
                        50.8692669
                    ]
                ]
            },
            "merged_links_id": [],
            "merged_links_coords": [],
            "id": "way/825818114"
        },
        {
            "type": "Feature",
            "properties": {
                "@id": "way/828147377",
                "highway": "residential",
                "name": "Rue des Sports",
                "roundabout": false
            },
            "geometry": {
                "type": "LineString",
                "coordinates": [
                    [
                        2.0756351,
                        50.8757185
                    ],
                    [
                        2.0755253,
                        50.8757369
                    ],
                    [
                        2.0747295,
                        50.8758515
                    ],
                    [
                        2.0744083,
                        50.8758978
                    ],
                    [
                        2.0743469,
                        50.8759066
                    ],
                    [
                        2.0741226,
                        50.8759389
                    ]
                ]
            },
            "merged_links_id": [],
            "merged_links_coords": [],
            "id": "way/828147377"
        },
        {
            "type": "Feature",
            "properties": {
                "@id": "way/1153337530",
                "highway": "residential",
                "name": "Rue des Meuniers",
                "roundabout": false
            },
            "geometry": {
                "type": "LineString",
                "coordinates": [
                    [
                        2.0680834,
                        50.8746177
                    ],
                    [
                        2.0680334,
                        50.8746549
                    ],
                    [
                        2.0679215,
                        50.8747374
                    ]
                ]
            },
            "merged_links_id": [],
            "merged_links_coords": [],
            "id": "way/1153337530"
        },
        {
            "type": "Feature",
            "properties": {
                "@id": "way/1153337532",
                "highway": "residential",
                "name": "Rue des Chapeliers",
                "roundabout": false
            },
            "geometry": {
                "type": "LineString",
                "coordinates": [
                    [
                        2.068164,
                        50.8758624
                    ],
                    [
                        2.0685004,
                        50.87558
                    ]
                ]
            },
            "merged_links_id": [],
            "merged_links_coords": [],
            "id": "way/1153337532"
        },
        {
            "type": "Feature",
            "properties": {
                "@id": "way/1153337533_0",
                "highway": "residential",
                "name": "Rue des Meuniers",
                "oneway": "yes",
                "roundabout": false
            },
            "geometry": {
                "type": "LineString",
                "coordinates": [
                    [
                        2.0679215,
                        50.8747374
                    ],
                    [
                        2.0678987,
                        50.8748212
                    ],
                    [
                        2.0677043,
                        50.8750279
                    ]
                ]
            },
            "merged_links_id": [],
            "merged_links_coords": [],
            "id": "way/1153337533_0"
        },
        {
            "type": "Feature",
            "properties": {
                "@id": "way/1153337533_1",
                "highway": "residential",
                "name": "Rue des Meuniers",
                "oneway": "yes",
                "roundabout": false
            },
            "geometry": {
                "type": "LineString",
                "coordinates": [
                    [
                        2.0677043,
                        50.8750279
                    ],
                    [
                        2.0672534,
                        50.8754588
                    ]
                ]
            },
            "merged_links_id": [],
            "merged_links_coords": [],
            "id": "way/1153337533_1"
        },
        {
            "type": "Feature",
            "properties": {
                "@id": "way/1153337535",
                "highway": "residential",
                "name": "Rue des Coquelicots",
                "roundabout": false
            },
            "geometry": {
                "type": "LineString",
                "coordinates": [
                    [
                        2.0709644,
                        50.8744801
                    ],
                    [
                        2.070951,
                        50.8743142
                    ],
                    [
                        2.0709349,
                        50.8742618
                    ],
                    [
                        2.0708893,
                        50.8742093
                    ],
                    [
                        2.0708156,
                        50.8741712
                    ]
                ]
            },
            "merged_links_id": [],
            "merged_links_coords": [],
            "id": "way/1153337535"
        },
        {
            "type": "Feature",
            "properties": {
                "@id": "way/1167114333",
                "highway": "tertiary",
                "name": "Avenue des Alli\u00e9s",
                "roundabout": false
            },
            "geometry": {
                "type": "LineString",
                "coordinates": [
                    [
                        2.075196,
                        50.8752752
                    ],
                    [
                        2.0753212,
                        50.8753875
                    ],
                    [
                        2.0754444,
                        50.8755298
                    ]
                ]
            },
            "merged_links_id": [],
            "merged_links_coords": [],
            "id": "way/1167114333"
        },
        {
            "type": "Feature",
            "properties": {
                "@id": "way/1167114334",
                "highway": "residential",
                "name": "Rue de la Chapelle",
                "roundabout": false
            },
            "geometry": {
                "type": "LineString",
                "coordinates": [
                    [
                        2.0704014,
                        50.876276
                    ],
                    [
                        2.0704577,
                        50.8763188
                    ],
                    [
                        2.0704856,
                        50.8763401
                    ],
                    [
                        2.0705229,
                        50.8763688
                    ],
                    [
                        2.0706166,
                        50.876433
                    ],
                    [
                        2.070732,
                        50.876507
                    ]
                ]
            },
            "merged_links_id": [],
            "merged_links_coords": [],
            "id": "way/1167114334"
        }
    ]
}